{
  "type": "service_account",
  "project_id": "hawkey-220708",
  "private_key_id": "0bfd8585702c0be33897ed1c456302050b9bcefd",
  "private_key": "-----BEGIN PRIVATE KEY-----\nMIIEvgIBADANBgkqhkiG9w0BAQEFAASCBKgwggSkAgEAAoIBAQC8rGlgq0L+8IeD\nm++VMc9LMTPHa0ppfcaKUa9rqYZnp8yXiQJ0z+sQL+vVQ1lyvvtRZnA1dwCPpFZP\ntEp3m7tTFI8VhVaKX4FfOtYSRfOTJT/qEksbQpTGTjnudduo7dbNzaYOIMR4aRGw\nOjF6dQ8pCyQ3XN9r94dA8YoeQcZmqp5YA0/8ZagLxZAO/J3t519rJE6wYXNjXX+j\n5A82eaF76+S5Y4gH59czg1VIVLNple4Fe2JtGZ52biwVrB0I87f1DR2I0ky316nT\n//lA6xz7BGkWuMD7SciY8HAcej/1VO0+O4J5OZUlZZcUBDTRUHQWATdHSrAFg81H\nQb/wqq7pAgMBAAECggEABkZHlN7tMfRG1XIkpBYNekcvHSUsythTd3si9dYj8aOL\ncsisK71UaGvnkGaWfXHrgrgA6E5GVwCUnD73MQYdUzR+U61lBOILN+MJhn8MDCsz\ndnHYTJZIw1WLqKoDvZj3SU3bBWJClmyMGYu95IArGmbT9AFjLsCDH35I5Ruz4Osh\n63mVUd2ipxHq1mE9zj19HdL1dAcqNZ/ws214lBa3Xxhx5FB0BD5nViNsMWZly+02\nNjcL+wFJktBgjHTYLVjNQMUTNhCFG0mN8HSB+3z7qyiY536C8ImcTWZxwg+lTtPj\nS5AM5itRtmOyZKcZV21GInpdij8awx+InpInvYcigQKBgQD7n0F/IrbK/QmgsXdg\n7IbFVnvYtmhqphTBSJXiOCA6bVn4dDfAU7lkL4pxBgQJQKFvq8IzyfR/HyARyff3\nW3LGVreUzL5uyCmfHlgqmzXTR3JjaDzorIA8y9O3dvdAhmYvmJlFJvV/MYC9sDE0\n8TupLYUu8qawkEoZ/7IBHpfgYQKBgQC/9McgI/sIbyi2TfKv/8HQuIDYSlvn7z64\nrOsoZ9nJ+pCh44XU5Q2rReUAlliC5BCbyEeizBs/KQhKPPmqrTZnp89IHcaPNAWF\ngs1msoPg2nn+n5OUSzLswvtYNndigyvN+sAUEVg+ZHz7pYr/lCGHkzW7UtyclxPK\npDQmdLV7iQKBgQDjqg+X2a/scBBi/c9Wuguix4Jc7YYCYOzMiUFcIo4+byyFmZnM\nAbTvSfiIFPpX6Mtof87CDwuSbXYVwlkCzRJHFLUcBDiVgbPvDYSWYELOPInqGalq\nmJGa8I1KJXDHSBNzIy4inIJpqD+k4aNUFKR3iQFFHjXl8VequGi1jJm8YQKBgFOR\nCbtZTqkeU3gCOTwbuNHX8Oe4f4haZFDbnsiJZYwD1EFWHuZPDYNZu1dlHIVnKj/X\nkjAycU4u29gN8Zc3Ly8zJA8+PzoKqLi1+BvUbYtPMbsC16nAjxv5yphdpd2yQzi6\nCDL0Vhlbf/nB2OBpKauvD75MVZSqRMh8ceOn/XYZAoGBAIzE/VKSTsdJBahYvtdI\nZvSb7TjtkH5XKAA9fJQ7YlGEKuM8U/isHMiMP0tK5uOwRb161b9WL6xtckDeuFpo\n0tuzbL7KWkdjXZE9SxlBpIQs0q5r70F2r+6PhncSpivfMyrdqrkOUCW+BKG30AVn\npXXfHt6mYbqODE/eKj5O+pEN\n-----END PRIVATE KEY-----\n",
  "client_email": "hawkey@hawkey-220708.iam.gserviceaccount.com",
  "client_id": "107200261144259886380",
  "auth_uri": "https://accounts.google.com/o/oauth2/auth",
  "token_uri": "https://oauth2.googleapis.com/token",
  "auth_provider_x509_cert_url": "https://www.googleapis.com/oauth2/v1/certs",
  "client_x509_cert_url": "https://www.googleapis.com/robot/v1/metadata/x509/hawkey%40hawkey-220708.iam.gserviceaccount.com"
}
